26 Control Flow – Adventures in Data Science
…
  stations
}

Notice how using multiple conditionals makes it harder to understand what the function does. We could instead use one conditional, but we’d have to repeat parts of the code that are the same. Alternatively, we could move some of the cleaning steps to other functions, so that read_fuel_sheet is shorter and easier to understand (without changing what it does).

Let’s test the new read_fuel_sheet function on the 2023 data:

read_fuel_sheet(path, 2023)

# A tibble: 52 × 12
   state  biodiesel   cng   e85 electric hydrogen   lng propane renewable_diesel
   <chr>      <dbl> <dbl> <dbl>    <dbl> <chr>    <dbl> <chr>              <dbl>
 1 Alaba…         9    28    34      424 0 | 0 |…     2 25 | 3…                0
 2 Alaska         0     0     0       65 0 | 0 |…     0 1 | 0 …                0
 3 Arizo…        77    26    21     1198 0 | 0 |…     5 42 | 3…                0
 4 Arkan…        34    14    74      334 0 | 0 |…     0 17 | 1…                0
 5 Calif…        48   292   369    16381 57 | 7 …    39 136 | …              597
 6 Color…         5    25    95     2165 0 | 1 |…     1 28 | 2…                0
 7 Conne…         1    13     3      865 0 | 0 |…     0 5 | 15…                0
 8 Delaw…         0     3     2      197 0 | 1 |…     0 7 | 12…                0
 9 Distr…         9     2     4      369 0 | 0 |…     0 0 | 6 …                0
10 Flori…         5    64   150     3430 0 | 0 |…     3 74 | 5…                0
# ℹ 42 more rows
# ℹ 3 more variables: total <dbl>, electric_outlets <dbl>, year <dbl>

We should also make sure that it still returns the same result for the 2007 data:

read_fuel_sheet(path, 2007)

New names:
• `` -> `...5`
• `` -> `...6`
• `` -> `...8`

# A tibble: 52 × 10
   state       biodiesel   cng   e85 electric hydrogen   lng propane total  year
   <chr>           <dbl> <dbl> <dbl>    <dbl> <chr>    <dbl> <chr>   <dbl> <dbl>
 1 Alabama            13     3     3        0 0            0 52         71  2007
 2 Alaska              0     1     0        0 0            0 10         11  2007
 3 Arizona            10    37    13       12 1            3 58        134  2007
 4 Arkansas            3     3     4        0 0            0 41         51  2007
 5 California         39   186     6      367 23          29 206       856  2007
 6 Colorado           30    21    45        2 0            0 59        157  2007
 7 Connecticut         1    10     2        3 0            0 16         32  2007
 8 Delaware            3     1     1        0 0            0 3           8  2007
 9 District o…         1     1     3        0 1            0 0           6  2007
10 Florida            14    17    11        2 1            0 49         94  2007
# ℹ 42 more rows
…
