25 Writing Functions – Adventures in Data Science
…
  stations
}

Test the new function to make sure it returns the same result on the example case:

read_fuel_sheet(path, 2007)

New names:
• `` -> `...5`
• `` -> `...6`
• `` -> `...8`

# A tibble: 52 × 10
   state       biodiesel   cng   e85 electric hydrogen   lng propane total  year
   <chr>           <dbl> <dbl> <dbl>    <dbl> <chr>    <dbl> <chr>   <dbl> <dbl>
 1 Alabama            13     3     3        0 0            0 52         71  2007
 2 Alaska              0     1     0        0 0            0 10         11  2007
 3 Arizona            10    37    13       12 1            3 58        134  2007
 4 Arkansas            3     3     4        0 0            0 41         51  2007
 5 California         39   186     6      367 23          29 206       856  2007
 6 Colorado           30    21    45        2 0            0 59        157  2007
 7 Connecticut         1    10     2        3 0            0 16         32  2007
 8 Delaware            3     1     1        0 0            0 3           8  2007
 9 District o…         1     1     3        0 1            0 0           6  2007
10 Florida            14    17    11        2 1            0 49         94  2007
# ℹ 42 more rows

The result looks okay, so try a few more cases:

read_fuel_sheet(path, 2008)

New names:
• `` -> `...5`
• `` -> `...6`
• `` -> `...8`

# A tibble: 52 × 10
   state       biodiesel   cng   e85 electric hydrogen   lng propane total  year
   <chr>           <dbl> <dbl> <dbl>    <dbl> <chr>    <dbl> <chr>   <dbl> <dbl>
 1 Alabama            11     3     6        0 0            0 40         60  2008
 2 Alaska              0     1     0        0 0            0 10         11  2008
 3 Arizona            10    40    23        5 1            5 51        135  2008
 4 Arkansas            2     3     7        0 0            0 37         49  2008
 5 California         36   184    13      376 26          28 199       862  2008
 6 Colorado           18    18    65        0 0            0 43        144  2008
 7 Connecticut         1     9     4        3 1            0 13         31  2008
 8 Delaware            3     1     1        0 0            0 2           7  2008
 9 District o…         1     1     3        0 1            0 0           6  2008
10 Florida            12    15    18        3 2            0 47         97  2008
# ℹ 42 more rows

read_fuel_sheet(path, 2010)

New names:
• `` -> `...5`
• `` -> `...6`
• `` -> `...8`

# A tibble: 52 × 10
   state       biodiesel   cng   e85 electric hydrogen   lng propane total  year
   <chr>           <dbl> <dbl> <dbl>    <dbl> <chr>    <dbl> <chr>   <dbl> <dbl>
 1 Alabama             5     4    15        0 0            1 128       153  2010
 2 Alaska              1     2     0        0 0            0 8          11  2010
 3 Arizona            14    36    32        8 1            5 61        157  2010
 4 Arkansas            6     4    13        1 0            0 51         75  2010
 5 California         35   213    54      428 22          32 227      1011  2010
 6 Colorado           14    23    86        5 1            0 50        179  2010
 7 Connecticut         1    13     1        4 2            0 16         37  2010
 8 Delaware            3     1     1        0 0            0 3           8  2010
 9 District o…         1     2     3        1 1            0 0           8  2010
10 Florida            16    14    42        7 0            0 75        154  2010
# ℹ 42 more rows
…
